…
```{r website-2-29}
question_text(NULL,
	answer(NULL, correct = TRUE),
	allow_retry = TRUE,
	try_again_button = "Edit Answer",
	incorrect = NULL,
	rows = 10)
```

###

````
> read_rds("clean_data.rds")
# A tibble: 158 × 6
   artist  track     week_num  rank week_offset song_artist
   <chr>   <chr>        <dbl> <dbl>       <dbl> <chr>
 1 Aaliyah Try Again       12    59          11 Try Again (Aaliyah)
 2 Aaliyah Try Again       13    53          11 Try Again (Aaliyah)
 3 Aaliyah Try Again       14    38          11 Try Again (Aaliyah)
 4 Aaliyah Try Again       15    28          11 Try Again (Aaliyah)
 5 Aaliyah Try Again       16    21          11 Try Again (Aaliyah)
 6 Aaliyah Try Again       17    18          11 Try Again (Aaliyah)
 7 Aaliyah Try Again       18    16          11 Try Again (Aaliyah)
 8 Aaliyah Try Again       19    14          11 Try Again (Aaliyah)
 9 Aaliyah Try Again       20    12          11 Try Again (Aaliyah)
10 Aaliyah Try Again       21    10          11 Try Again (Aaliyah)
# ℹ 148 more rows
…
